<svg id="decrease" xmlns="http://www.w3.org/2000/svg" width="24" height="24" viewBox="0 0 24 24">
  <path id="Path_40826" data-name="Path 40826" d="M0,0H24V24H0Z" fill="none"/>
  <path id="Path_40827" data-name="Path 40827" d="M12,2A10,10,0,1,0,22,12,10,10,0,0,0,12,2Zm5,11H7V11H17Z" fill="#f23958"/>
</svg>
