<svg id="increase" xmlns="http://www.w3.org/2000/svg" width="24" height="24" viewBox="0 0 24 24">
  <path id="Path_40828" data-name="Path 40828" d="M0,0H24V24H0Z" fill="none"/>
  <path id="Path_40829" data-name="Path 40829" d="M12,2A10,10,0,1,0,22,12,10,10,0,0,0,12,2Zm5,11H13v4H11V13H7V11h4V7h2v4h4Z" fill="#2a3589"/>
</svg>
